%YAML 1.1
%TAG !u! tag:unity3d.com,2011:
--- !u!74 &7400000
AnimationClip:
  m_ObjectHideFlags: 0
  m_PrefabParentObject: {fileID: 0}
  m_PrefabInternal: {fileID: 0}
  m_Name: fireMovement
  serializedVersion: 6
  m_Legacy: 0
  m_Compressed: 0
  m_UseHighQualityCurve: 1
  m_RotationCurves: []
  m_CompressedRotationCurves: []
  m_EulerCurves: []
  m_PositionCurves: []
  m_ScaleCurves: []
  m_FloatCurves: []
  m_PPtrCurves:
  - curve:
    - time: 0
      value: {fileID: 21300000, guid: 6d3e6bfc7a6217b4396659a8377cd5a1, type: 3}
    - time: 0.06666667
      value: {fileID: 21300000, guid: 453da3cfb0c36fc4fabba5d3edec5eee, type: 3}
    - time: 0.13333334
      value: {fileID: 21300000, guid: 21efcfa6e4734a24d8089bdadfe90834, type: 3}
    - time: 0.2
      value: {fileID: 21300000, guid: 9cbf43d3b9d84084ea50232989035ad1, type: 3}
    - time: 0.26666668
      value: {fileID: 21300000, guid: 3a89269b9477ba645bda2fd42a865848, type: 3}
    - time: 0.3
      value: {fileID: 21300000, guid: 246ba036695933d4da5d7777f22d9108, type: 3}
    - time: 0.36666667
      value: {fileID: 21300000, guid: de12c9cab7cf23841b0acef5e75f82ac, type: 3}
    - time: 0.43333334
      value: {fileID: 21300000, guid: 4027cc54adb7da244959a2384ff61f3b, type: 3}
    - time: 0.5
      value: {fileID: 21300000, guid: ffa4799fa603f4542afaf7804604479b, type: 3}
    - time: 0.56666666
      value: {fileID: 21300000, guid: 2a2e44f0ddd0db346abd490e023c0702, type: 3}
    - time: 0.6333333
      value: {fileID: 21300000, guid: d75d9e776c982d543be886ffe9a75e73, type: 3}
    - time: 0.7
      value: {fileID: 21300000, guid: aa42e78909ca05740840cb319c6fdb3a, type: 3}
    - time: 0.73333335
      value: {fileID: 21300000, guid: 8598f6b26641bea4eb3330d0f66914df, type: 3}
    - time: 0.8
      value: {fileID: 21300000, guid: 2391470033627be44a75bdf5ba5c9e0b, type: 3}
    - time: 0.8666667
      value: {fileID: 21300000, guid: fb8459981f308fb4bb8b06461ebc457f, type: 3}
    - time: 0.93333334
      value: {fileID: 21300000, guid: 2b090996edc5bd042b5f5075dab41f67, type: 3}
    - time: 1
      value: {fileID: 21300000, guid: bd30d577fde552c41a0723512f329abb, type: 3}
    attribute: m_Sprite
    path: 
    classID: 212
    script: {fileID: 0}
  m_SampleRate: 30
  m_WrapMode: 0
  m_Bounds:
    m_Center: {x: 0, y: 0, z: 0}
    m_Extent: {x: 0, y: 0, z: 0}
  m_ClipBindingConstant:
    genericBindings:
    - serializedVersion: 2
      path: 0
      attribute: 0
      script: {fileID: 0}
      typeID: 212
      customType: 23
      isPPtrCurve: 1
    pptrCurveMapping:
    - {fileID: 21300000, guid: 6d3e6bfc7a6217b4396659a8377cd5a1, type: 3}
    - {fileID: 21300000, guid: 453da3cfb0c36fc4fabba5d3edec5eee, type: 3}
    - {fileID: 21300000, guid: 21efcfa6e4734a24d8089bdadfe90834, type: 3}
    - {fileID: 21300000, guid: 9cbf43d3b9d84084ea50232989035ad1, type: 3}
    - {fileID: 21300000, guid: 3a89269b9477ba645bda2fd42a865848, type: 3}
    - {fileID: 21300000, guid: 246ba036695933d4da5d7777f22d9108, type: 3}
    - {fileID: 21300000, guid: de12c9cab7cf23841b0acef5e75f82ac, type: 3}
    - {fileID: 21300000, guid: 4027cc54adb7da244959a2384ff61f3b, type: 3}
    - {fileID: 21300000, guid: ffa4799fa603f4542afaf7804604479b, type: 3}
    - {fileID: 21300000, guid: 2a2e44f0ddd0db346abd490e023c0702, type: 3}
    - {fileID: 21300000, guid: d75d9e776c982d543be886ffe9a75e73, type: 3}
    - {fileID: 21300000, guid: aa42e78909ca05740840cb319c6fdb3a, type: 3}
    - {fileID: 21300000, guid: 8598f6b26641bea4eb3330d0f66914df, type: 3}
    - {fileID: 21300000, guid: 2391470033627be44a75bdf5ba5c9e0b, type: 3}
    - {fileID: 21300000, guid: fb8459981f308fb4bb8b06461ebc457f, type: 3}
    - {fileID: 21300000, guid: 2b090996edc5bd042b5f5075dab41f67, type: 3}
    - {fileID: 21300000, guid: bd30d577fde552c41a0723512f329abb, type: 3}
  m_AnimationClipSettings:
    serializedVersion: 2
    m_AdditiveReferencePoseClip: {fileID: 0}
    m_AdditiveReferencePoseTime: 0
    m_StartTime: 0
    m_StopTime: 1.0333333
    m_OrientationOffsetY: 0
    m_Level: 0
    m_CycleOffset: 0
    m_HasAdditiveReferencePose: 0
    m_LoopTime: 1
    m_LoopBlend: 0
    m_LoopBlendOrientation: 0
    m_LoopBlendPositionY: 0
    m_LoopBlendPositionXZ: 0
    m_KeepOriginalOrientation: 0
    m_KeepOriginalPositionY: 1
    m_KeepOriginalPositionXZ: 0
    m_HeightFromFeet: 0
    m_Mirror: 0
  m_EditorCurves: []
  m_EulerEditorCurves: []
  m_HasGenericRootTransform: 0
  m_HasMotionFloatCurves: 0
  m_GenerateMotionCurves: 0
  m_Events: []
