%YAML 1.1
%TAG !u! tag:unity3d.com,2011:
--- !u!74 &7400000
AnimationClip:
  m_ObjectHideFlags: 0
  m_PrefabParentObject: {fileID: 0}
  m_PrefabInternal: {fileID: 0}
  m_Name: Sleeping
  serializedVersion: 6
  m_Legacy: 0
  m_Compressed: 0
  m_UseHighQualityCurve: 1
  m_RotationCurves: []
  m_CompressedRotationCurves: []
  m_EulerCurves: []
  m_PositionCurves: []
  m_ScaleCurves: []
  m_FloatCurves: []
  m_PPtrCurves:
  - curve:
    - time: 0
      value: {fileID: 21300000, guid: 7776feeb4f7eb6a4da00aa2c9c89d102, type: 3}
    - time: 0.016666668
      value: {fileID: 21300000, guid: 7e07381b1b8a9a840b1b4ad93b9b0c65, type: 3}
    - time: 0.033333335
      value: {fileID: 21300000, guid: 9d7b0e579bdd86f41812c2012adc5e7c, type: 3}
    - time: 0.05
      value: {fileID: 21300000, guid: 9579743e8c69b094fb8c9401f105f1fe, type: 3}
    - time: 0.06666667
      value: {fileID: 21300000, guid: 9a50ecb8f8ec32f4f91a673a1b059b2d, type: 3}
    - time: 0.083333336
      value: {fileID: 21300000, guid: 7d0bf14f69139344f8c98eaa7a147a11, type: 3}
    - time: 0.1
      value: {fileID: 21300000, guid: 2540617cef5f2fa46a0d00fc600fa33d, type: 3}
    - time: 0.11666667
      value: {fileID: 21300000, guid: 9c8eb0047e2fd33499675cbfa1876272, type: 3}
    - time: 0.13333334
      value: {fileID: 21300000, guid: a8171ff3f4ebbda469c7f2d32c4097db, type: 3}
    - time: 0.15
      value: {fileID: 21300000, guid: 9913bacbecd7b1e4a9463ce4b9cea38c, type: 3}
    - time: 0.16666667
      value: {fileID: 21300000, guid: f5fe7bd48b3e4ec439544b5559b192d9, type: 3}
    - time: 0.18333334
      value: {fileID: 21300000, guid: fa33afd27153b774d97fe7fd9a16fc6a, type: 3}
    - time: 0.2
      value: {fileID: 21300000, guid: 8bf4e2cd5603dc148a7554cd864d44b6, type: 3}
    - time: 0.21666667
      value: {fileID: 21300000, guid: f546978f8e6cbea4bb399f6a69fa53b5, type: 3}
    - time: 0.23333333
      value: {fileID: 21300000, guid: 7b93bb79ee65ee14caf266282273ef6c, type: 3}
    - time: 0.25
      value: {fileID: 21300000, guid: 16f33b8f494a1114399a0590bd74428d, type: 3}
    - time: 0.26666668
      value: {fileID: 21300000, guid: ddcfddac83ce0134bb24786b97527c94, type: 3}
    - time: 0.28333333
      value: {fileID: 21300000, guid: 24d99fdccbb29be42a15039b3bed0f53, type: 3}
    - time: 0.3
      value: {fileID: 21300000, guid: cf0b4f18fae4f8f4a8f433434a0c7e99, type: 3}
    - time: 0.31666666
      value: {fileID: 21300000, guid: 70f2585e09769c046a27a8b20bd65c4f, type: 3}
    - time: 0.33333334
      value: {fileID: 21300000, guid: 54796aaac53542641b0c96a9121e2de8, type: 3}
    - time: 0.35
      value: {fileID: 21300000, guid: 28c4fe5a57a0b8e4b874e1212aa7b4c8, type: 3}
    - time: 0.36666667
      value: {fileID: 21300000, guid: d978a4d037675d349a9b1a073cf839f0, type: 3}
    - time: 0.38333333
      value: {fileID: 21300000, guid: bd96f7391e2d37144843b91a69f50f96, type: 3}
    - time: 0.4
      value: {fileID: 21300000, guid: 8081827cbd123bd469334fabd9360985, type: 3}
    - time: 0.41666666
      value: {fileID: 21300000, guid: 05b688a4a1c51d740b69c66a5950d3c3, type: 3}
    - time: 0.43333334
      value: {fileID: 21300000, guid: c7344bd30b059bf4dbb8cefdacbb54ce, type: 3}
    - time: 0.45
      value: {fileID: 21300000, guid: 14b5dff623ecaf8449c31c835d19b152, type: 3}
    - time: 0.46666667
      value: {fileID: 21300000, guid: 87a10266a4d52cd41a1ac24e0e4a97da, type: 3}
    - time: 0.48333332
      value: {fileID: 21300000, guid: 42ca3253b3f632c429f98cbbb4d67d91, type: 3}
    - time: 0.5
      value: {fileID: 21300000, guid: 77d6ee16df005ae428c2348bab81c233, type: 3}
    - time: 0.51666665
      value: {fileID: 21300000, guid: 32a867d3130cdf84cbc950edd0c926d1, type: 3}
    - time: 0.53333336
      value: {fileID: 21300000, guid: 35fa111002118b640a205be776a69cdf, type: 3}
    - time: 0.55
      value: {fileID: 21300000, guid: 3b815154d51763e48b98d6fd1c275dbb, type: 3}
    - time: 0.56666666
      value: {fileID: 21300000, guid: b4ad0edf417109e4f844c480de44e25b, type: 3}
    - time: 0.5833333
      value: {fileID: 21300000, guid: 9c6b1f2cc3afd65459e96bd26093ab06, type: 3}
    - time: 0.6
      value: {fileID: 21300000, guid: be4aa4c589b53ad43840935bb91d340f, type: 3}
    - time: 0.6166667
      value: {fileID: 21300000, guid: adf9066f7d17d2645a5268a7a95aa455, type: 3}
    - time: 0.6333333
      value: {fileID: 21300000, guid: 9ee604f3dbf86c74faebcde06ccd695a, type: 3}
    - time: 0.65
      value: {fileID: 21300000, guid: 1c4964969e67f844fbbecaddaa31b19f, type: 3}
    - time: 0.6666667
      value: {fileID: 21300000, guid: 72a4a8fcda46d834f960862ff6ab6545, type: 3}
    - time: 0.68333334
      value: {fileID: 21300000, guid: 9c8bf9fcc6ddfb047aa4be95dd58c8f0, type: 3}
    - time: 0.7
      value: {fileID: 21300000, guid: f90271d372da45a4082db61c1f1cbfd5, type: 3}
    - time: 0.71666664
      value: {fileID: 21300000, guid: ceed50dbe9a238e4fb29a37f33ac070c, type: 3}
    - time: 0.73333335
      value: {fileID: 21300000, guid: c90dae2dadff8d148a72aee43ad3372a, type: 3}
    - time: 0.75
      value: {fileID: 21300000, guid: 66a979fc5e0f61d4389b7cbe91831aa8, type: 3}
    - time: 0.76666665
      value: {fileID: 21300000, guid: 34af38ecfbb3cf44c8ce4b1219e8e021, type: 3}
    - time: 0.78333336
      value: {fileID: 21300000, guid: bc2a8899b4bea2e4689cd5a103efeb1b, type: 3}
    - time: 0.8
      value: {fileID: 21300000, guid: ad4e7a3fc935dd249a73d0e34191f334, type: 3}
    - time: 0.81666666
      value: {fileID: 21300000, guid: fd4cf1132504b054d92ba000786ae96d, type: 3}
    - time: 0.8333333
      value: {fileID: 21300000, guid: 0d7d6f91300cc5a41b9ce28344501aa1, type: 3}
    - time: 0.85
      value: {fileID: 21300000, guid: 34eca6e6ba6f6c24db4d215327f3596f, type: 3}
    - time: 0.8666667
      value: {fileID: 21300000, guid: 9d59d27c140a38648b0e80ec51bba52a, type: 3}
    - time: 0.8833333
      value: {fileID: 21300000, guid: 21c005d9b0d0f2a499293dde5a5fd0f1, type: 3}
    - time: 0.9
      value: {fileID: 21300000, guid: b51fd84bc5454af4eb40ca18603f715c, type: 3}
    - time: 0.9166667
      value: {fileID: 21300000, guid: fefb3dc71c67b6348bfc10474a60ae7c, type: 3}
    - time: 0.93333334
      value: {fileID: 21300000, guid: 961da76c2443d0547b8a9b2db7de8075, type: 3}
    - time: 0.95
      value: {fileID: 21300000, guid: 2d53f708ad7142d43ab4a4d220f1a303, type: 3}
    - time: 0.96666664
      value: {fileID: 21300000, guid: a51d415005b10a74da71987cae5389a3, type: 3}
    - time: 0.98333335
      value: {fileID: 21300000, guid: c0eee14ac94b9be44b5192fc748a4727, type: 3}
    attribute: m_Sprite
    path: 
    classID: 212
    script: {fileID: 0}
  m_SampleRate: 60
  m_WrapMode: 0
  m_Bounds:
    m_Center: {x: 0, y: 0, z: 0}
    m_Extent: {x: 0, y: 0, z: 0}
  m_ClipBindingConstant:
    genericBindings:
    - serializedVersion: 2
      path: 0
      attribute: 0
      script: {fileID: 0}
      typeID: 212
      customType: 23
      isPPtrCurve: 1
    pptrCurveMapping:
    - {fileID: 21300000, guid: 7776feeb4f7eb6a4da00aa2c9c89d102, type: 3}
    - {fileID: 21300000, guid: 7e07381b1b8a9a840b1b4ad93b9b0c65, type: 3}
    - {fileID: 21300000, guid: 9d7b0e579bdd86f41812c2012adc5e7c, type: 3}
    - {fileID: 21300000, guid: 9579743e8c69b094fb8c9401f105f1fe, type: 3}
    - {fileID: 21300000, guid: 9a50ecb8f8ec32f4f91a673a1b059b2d, type: 3}
    - {fileID: 21300000, guid: 7d0bf14f69139344f8c98eaa7a147a11, type: 3}
    - {fileID: 21300000, guid: 2540617cef5f2fa46a0d00fc600fa33d, type: 3}
    - {fileID: 21300000, guid: 9c8eb0047e2fd33499675cbfa1876272, type: 3}
    - {fileID: 21300000, guid: a8171ff3f4ebbda469c7f2d32c4097db, type: 3}
    - {fileID: 21300000, guid: 9913bacbecd7b1e4a9463ce4b9cea38c, type: 3}
    - {fileID: 21300000, guid: f5fe7bd48b3e4ec439544b5559b192d9, type: 3}
    - {fileID: 21300000, guid: fa33afd27153b774d97fe7fd9a16fc6a, type: 3}
    - {fileID: 21300000, guid: 8bf4e2cd5603dc148a7554cd864d44b6, type: 3}
    - {fileID: 21300000, guid: f546978f8e6cbea4bb399f6a69fa53b5, type: 3}
    - {fileID: 21300000, guid: 7b93bb79ee65ee14caf266282273ef6c, type: 3}
    - {fileID: 21300000, guid: 16f33b8f494a1114399a0590bd74428d, type: 3}
    - {fileID: 21300000, guid: ddcfddac83ce0134bb24786b97527c94, type: 3}
    - {fileID: 21300000, guid: 24d99fdccbb29be42a15039b3bed0f53, type: 3}
    - {fileID: 21300000, guid: cf0b4f18fae4f8f4a8f433434a0c7e99, type: 3}
    - {fileID: 21300000, guid: 70f2585e09769c046a27a8b20bd65c4f, type: 3}
    - {fileID: 21300000, guid: 54796aaac53542641b0c96a9121e2de8, type: 3}
    - {fileID: 21300000, guid: 28c4fe5a57a0b8e4b874e1212aa7b4c8, type: 3}
    - {fileID: 21300000, guid: d978a4d037675d349a9b1a073cf839f0, type: 3}
    - {fileID: 21300000, guid: bd96f7391e2d37144843b91a69f50f96, type: 3}
    - {fileID: 21300000, guid: 8081827cbd123bd469334fabd9360985, type: 3}
    - {fileID: 21300000, guid: 05b688a4a1c51d740b69c66a5950d3c3, type: 3}
    - {fileID: 21300000, guid: c7344bd30b059bf4dbb8cefdacbb54ce, type: 3}
    - {fileID: 21300000, guid: 14b5dff623ecaf8449c31c835d19b152, type: 3}
    - {fileID: 21300000, guid: 87a10266a4d52cd41a1ac24e0e4a97da, type: 3}
    - {fileID: 21300000, guid: 42ca3253b3f632c429f98cbbb4d67d91, type: 3}
    - {fileID: 21300000, guid: 77d6ee16df005ae428c2348bab81c233, type: 3}
    - {fileID: 21300000, guid: 32a867d3130cdf84cbc950edd0c926d1, type: 3}
    - {fileID: 21300000, guid: 35fa111002118b640a205be776a69cdf, type: 3}
    - {fileID: 21300000, guid: 3b815154d51763e48b98d6fd1c275dbb, type: 3}
    - {fileID: 21300000, guid: b4ad0edf417109e4f844c480de44e25b, type: 3}
    - {fileID: 21300000, guid: 9c6b1f2cc3afd65459e96bd26093ab06, type: 3}
    - {fileID: 21300000, guid: be4aa4c589b53ad43840935bb91d340f, type: 3}
    - {fileID: 21300000, guid: adf9066f7d17d2645a5268a7a95aa455, type: 3}
    - {fileID: 21300000, guid: 9ee604f3dbf86c74faebcde06ccd695a, type: 3}
    - {fileID: 21300000, guid: 1c4964969e67f844fbbecaddaa31b19f, type: 3}
    - {fileID: 21300000, guid: 72a4a8fcda46d834f960862ff6ab6545, type: 3}
    - {fileID: 21300000, guid: 9c8bf9fcc6ddfb047aa4be95dd58c8f0, type: 3}
    - {fileID: 21300000, guid: f90271d372da45a4082db61c1f1cbfd5, type: 3}
    - {fileID: 21300000, guid: ceed50dbe9a238e4fb29a37f33ac070c, type: 3}
    - {fileID: 21300000, guid: c90dae2dadff8d148a72aee43ad3372a, type: 3}
    - {fileID: 21300000, guid: 66a979fc5e0f61d4389b7cbe91831aa8, type: 3}
    - {fileID: 21300000, guid: 34af38ecfbb3cf44c8ce4b1219e8e021, type: 3}
    - {fileID: 21300000, guid: bc2a8899b4bea2e4689cd5a103efeb1b, type: 3}
    - {fileID: 21300000, guid: ad4e7a3fc935dd249a73d0e34191f334, type: 3}
    - {fileID: 21300000, guid: fd4cf1132504b054d92ba000786ae96d, type: 3}
    - {fileID: 21300000, guid: 0d7d6f91300cc5a41b9ce28344501aa1, type: 3}
    - {fileID: 21300000, guid: 34eca6e6ba6f6c24db4d215327f3596f, type: 3}
    - {fileID: 21300000, guid: 9d59d27c140a38648b0e80ec51bba52a, type: 3}
    - {fileID: 21300000, guid: 21c005d9b0d0f2a499293dde5a5fd0f1, type: 3}
    - {fileID: 21300000, guid: b51fd84bc5454af4eb40ca18603f715c, type: 3}
    - {fileID: 21300000, guid: fefb3dc71c67b6348bfc10474a60ae7c, type: 3}
    - {fileID: 21300000, guid: 961da76c2443d0547b8a9b2db7de8075, type: 3}
    - {fileID: 21300000, guid: 2d53f708ad7142d43ab4a4d220f1a303, type: 3}
    - {fileID: 21300000, guid: a51d415005b10a74da71987cae5389a3, type: 3}
    - {fileID: 21300000, guid: c0eee14ac94b9be44b5192fc748a4727, type: 3}
  m_AnimationClipSettings:
    serializedVersion: 2
    m_AdditiveReferencePoseClip: {fileID: 0}
    m_AdditiveReferencePoseTime: 0
    m_StartTime: 0
    m_StopTime: 1
    m_OrientationOffsetY: 0
    m_Level: 0
    m_CycleOffset: 0
    m_HasAdditiveReferencePose: 0
    m_LoopTime: 1
    m_LoopBlend: 0
    m_LoopBlendOrientation: 0
    m_LoopBlendPositionY: 0
    m_LoopBlendPositionXZ: 0
    m_KeepOriginalOrientation: 0
    m_KeepOriginalPositionY: 1
    m_KeepOriginalPositionXZ: 0
    m_HeightFromFeet: 0
    m_Mirror: 0
  m_EditorCurves: []
  m_EulerEditorCurves: []
  m_HasGenericRootTransform: 0
  m_HasMotionFloatCurves: 0
  m_GenerateMotionCurves: 0
  m_Events: []
