%YAML 1.1
%TAG !u! tag:unity3d.com,2011:
--- !u!74 &7400000
AnimationClip:
  m_ObjectHideFlags: 0
  m_PrefabParentObject: {fileID: 0}
  m_PrefabInternal: {fileID: 0}
  m_Name: branchSalice2
  serializedVersion: 6
  m_Legacy: 0
  m_Compressed: 0
  m_UseHighQualityCurve: 1
  m_RotationCurves: []
  m_CompressedRotationCurves: []
  m_EulerCurves: []
  m_PositionCurves: []
  m_ScaleCurves: []
  m_FloatCurves: []
  m_PPtrCurves:
  - curve:
    - time: 0
      value: {fileID: 21300000, guid: 1df6919e23e05bd4aa9f68cc2a7692fa, type: 3}
    - time: 0.016666668
      value: {fileID: 21300000, guid: 33dc8b8f6965a0f4e98d69f49ee3b367, type: 3}
    - time: 0.033333335
      value: {fileID: 21300000, guid: 6887d4cb9b5666b4fa9a282d00b01c83, type: 3}
    - time: 0.05
      value: {fileID: 21300000, guid: 02395fc9dcce5584d8ebfa868540a812, type: 3}
    - time: 0.06666667
      value: {fileID: 21300000, guid: 99a1cdfcc5a66934980a5d6b6aeb20bb, type: 3}
    - time: 0.083333336
      value: {fileID: 21300000, guid: 5a2761e534b225d4188a6714cbdf3ebb, type: 3}
    - time: 0.1
      value: {fileID: 21300000, guid: 5c7f1969942e1f04cad4c06700466253, type: 3}
    - time: 0.11666667
      value: {fileID: 21300000, guid: 333a05465a59ac64e9bb570bda0c910a, type: 3}
    - time: 0.13333334
      value: {fileID: 21300000, guid: 59d520af9093e574783a8048933a90ed, type: 3}
    - time: 0.15
      value: {fileID: 21300000, guid: eb9db08d977cdea41877b1789ca6ccff, type: 3}
    - time: 0.16666667
      value: {fileID: 21300000, guid: ea93a013fd65f01499df9daf10089fac, type: 3}
    - time: 0.18333334
      value: {fileID: 21300000, guid: 9e11e5be11a01b044b565c0e0b030d61, type: 3}
    - time: 0.2
      value: {fileID: 21300000, guid: 9e5dcfa9d2feec84388716196a647b17, type: 3}
    - time: 0.21666667
      value: {fileID: 21300000, guid: 6214bd8ab2246044aa73f533dc310399, type: 3}
    - time: 0.23333333
      value: {fileID: 21300000, guid: 6173a44c24eea1648b286130417c8183, type: 3}
    - time: 0.25
      value: {fileID: 21300000, guid: 6b49a5cfa9a991b49aab12634bb3780a, type: 3}
    - time: 0.26666668
      value: {fileID: 21300000, guid: 76518d309c9c03745bf889d4d0a744b9, type: 3}
    - time: 0.28333336
      value: {fileID: 21300000, guid: af74753b8c85bda4bb3ac4a83b3e4f15, type: 3}
    - time: 0.30000004
      value: {fileID: 21300000, guid: fe00c4ed98ebfe84e94394fcbe9b2b67, type: 3}
    - time: 0.31666672
      value: {fileID: 21300000, guid: 7d89eb6b58d63db409f2fc2a29023283, type: 3}
    - time: 0.3333334
      value: {fileID: 21300000, guid: 6dad729ee9d0712429a37e068b10354d, type: 3}
    - time: 0.35000008
      value: {fileID: 21300000, guid: d888457b06972294aa72313ee718f44c, type: 3}
    - time: 0.36666676
      value: {fileID: 21300000, guid: 01ec17cc614d48c4d9a30a54ecd8c686, type: 3}
    - time: 0.38333344
      value: {fileID: 21300000, guid: 9de09d18c069a7d4ba927a862a266838, type: 3}
    - time: 0.40000013
      value: {fileID: 21300000, guid: f55b1ed0d723c1941928fed9e8620424, type: 3}
    - time: 0.4166668
      value: {fileID: 21300000, guid: a4d8b7c202f2deb4d9f2bc823775cf62, type: 3}
    - time: 0.4333335
      value: {fileID: 21300000, guid: 1b2b9cc9a572b5a4c9ee0eee82bb92a1, type: 3}
    - time: 0.45000017
      value: {fileID: 21300000, guid: 64a2bb7d6458a224dad83b7e25d2b1fc, type: 3}
    - time: 0.46666685
      value: {fileID: 21300000, guid: b70c7bfef914ab443ab8d189fbdc04bf, type: 3}
    - time: 0.48333353
      value: {fileID: 21300000, guid: 674515ebe2bb82d448fa44bb7caa5b61, type: 3}
    - time: 0.5000002
      value: {fileID: 21300000, guid: 29b1d4c506d56a9409ada9ce383a709e, type: 3}
    - time: 0.5166668
      value: {fileID: 21300000, guid: 750be88cc9ab1514fb7606654ea1202c, type: 3}
    - time: 0.5333335
      value: {fileID: 21300000, guid: 1a9e7a7c6fd39544e899e1b9e9b560c4, type: 3}
    - time: 0.55000013
      value: {fileID: 21300000, guid: 871c3df621e4e534faad92381e7bec08, type: 3}
    - time: 0.5666668
      value: {fileID: 21300000, guid: 9387c3ec9fa7e0d4592e34d461f19aee, type: 3}
    - time: 0.58333343
      value: {fileID: 21300000, guid: 4eb963f0bc89b50479317e80a71ad9ee, type: 3}
    - time: 0.6000001
      value: {fileID: 21300000, guid: 610901e9916f32843ab0259a2184c244, type: 3}
    - time: 0.61666673
      value: {fileID: 21300000, guid: 9751db8f2e904e0459d994cb0538929e, type: 3}
    - time: 0.6333334
      value: {fileID: 21300000, guid: 11d7a82d5f6ba8f4e832a1c367370899, type: 3}
    - time: 0.65000004
      value: {fileID: 21300000, guid: 75ee19657b5f59c41b66d4c1e77f8ba9, type: 3}
    - time: 0.6666667
      value: {fileID: 21300000, guid: 945dbc2434117ba48a729a8e959a1a8f, type: 3}
    - time: 0.68333334
      value: {fileID: 21300000, guid: 3f8f2fbe1314d0648a358a4aa4c9d08b, type: 3}
    - time: 0.7
      value: {fileID: 21300000, guid: 1731c060877a206449434e58ab0a99b3, type: 3}
    - time: 0.71666664
      value: {fileID: 21300000, guid: 1d6cee014c8e8874dbcc7b7dcb96bded, type: 3}
    - time: 0.7333333
      value: {fileID: 21300000, guid: c9c23e78c9e39a14a8ceb9f23f7ef0c6, type: 3}
    - time: 0.74999994
      value: {fileID: 21300000, guid: 8b76e1879a86dcd4994c7256bf42d25b, type: 3}
    - time: 0.7666666
      value: {fileID: 21300000, guid: dfe34af2af1127d4b8b53148d790c4d7, type: 3}
    - time: 0.78333324
      value: {fileID: 21300000, guid: 204128cce8b818c4abcbdccc7e2b9d69, type: 3}
    - time: 0.7999999
      value: {fileID: 21300000, guid: c7074cf5773db3640886cc650a20867e, type: 3}
    - time: 0.81666654
      value: {fileID: 21300000, guid: ecee3dc1c78d32f47ab2eb172885484d, type: 3}
    - time: 0.8333332
      value: {fileID: 21300000, guid: c623f212d199ce04c8484fd89df24b88, type: 3}
    - time: 0.84999985
      value: {fileID: 21300000, guid: 86c1ee3f6a63f1e48b2573845a5f2742, type: 3}
    - time: 0.8666665
      value: {fileID: 21300000, guid: c55fcae70057b3f41bc71246c72e3e9b, type: 3}
    - time: 0.88333315
      value: {fileID: 21300000, guid: 2cbcf1292ecf3ce4d8fa81f5e1f3ef71, type: 3}
    - time: 0.8999998
      value: {fileID: 21300000, guid: 5642792e6c18cda47b7ebf5ef2d4c2ec, type: 3}
    - time: 0.91666645
      value: {fileID: 21300000, guid: 04a357ef45e98ee4e8cad9a41e846193, type: 3}
    - time: 0.9333331
      value: {fileID: 21300000, guid: 705c2c0574f942f41b67568f2bb9d93e, type: 3}
    - time: 0.94999975
      value: {fileID: 21300000, guid: b78ec0bdbac3e3e4988f37b4f0ada2b5, type: 3}
    - time: 0.9666664
      value: {fileID: 21300000, guid: c2e8c02d0a8a5694b8c02822ffbd5a84, type: 3}
    - time: 0.98333305
      value: {fileID: 21300000, guid: cef32036a90c4ad49abb295ad6781622, type: 3}
    - time: 0.9999997
      value: {fileID: 21300000, guid: 895939de57082d7439dc9fcf53bc6b13, type: 3}
    - time: 1.0166664
      value: {fileID: 21300000, guid: 18523d8d278b80d4b96dd81eecee9c56, type: 3}
    - time: 1.0333331
      value: {fileID: 21300000, guid: f3251e81f1f84b04fb733c6048fbc83d, type: 3}
    - time: 1.0499997
      value: {fileID: 21300000, guid: 30bd5bbdfd0b4964b8bb35cf5a6403f7, type: 3}
    - time: 1.0666664
      value: {fileID: 21300000, guid: 1321b65841ff40147b6e5e328a572c0a, type: 3}
    - time: 1.083333
      value: {fileID: 21300000, guid: 9916a051ae8182c43ad29b71668dcfc7, type: 3}
    - time: 1.0999997
      value: {fileID: 21300000, guid: 09d153e3f89131e4a9beda262ee5d107, type: 3}
    - time: 1.1166663
      value: {fileID: 21300000, guid: d6022b19a8f42f44e9145b3811662531, type: 3}
    - time: 1.133333
      value: {fileID: 21300000, guid: ff49f246ef0979f4995bdb99f9331197, type: 3}
    - time: 1.1499996
      value: {fileID: 21300000, guid: b13980c10b8f8244ca94764243bc915a, type: 3}
    - time: 1.1666663
      value: {fileID: 21300000, guid: 7bc907b49f433c446bf120e7f6773106, type: 3}
    - time: 1.1833329
      value: {fileID: 21300000, guid: 2f8bd08056cfe8246ba3582f470704a7, type: 3}
    - time: 1.1999996
      value: {fileID: 21300000, guid: dde96defef659a548978a33981bce60f, type: 3}
    - time: 1.2166662
      value: {fileID: 21300000, guid: 030399f1f7f26d64d8ecf587376147bc, type: 3}
    - time: 1.2333329
      value: {fileID: 21300000, guid: 2a4f7a287981f544d90b4f4a82e33aca, type: 3}
    - time: 1.2499995
      value: {fileID: 21300000, guid: a3be3a4b3b5384849a0e4bf01ea8b1f1, type: 3}
    - time: 1.2666662
      value: {fileID: 21300000, guid: 151478a1d7c66dc41b142ddbb7aef891, type: 3}
    - time: 1.2833328
      value: {fileID: 21300000, guid: 52b764dd51f7fb349a58333c9f326e7a, type: 3}
    - time: 1.2999995
      value: {fileID: 21300000, guid: b2201676cdc26d940b4731ab596fc729, type: 3}
    - time: 1.3166661
      value: {fileID: 21300000, guid: 23ffd99828625554bbffb0b0451ab3cc, type: 3}
    - time: 1.3333328
      value: {fileID: 21300000, guid: 11b8f6ae4620d264eb848ddb091493df, type: 3}
    - time: 1.3499994
      value: {fileID: 21300000, guid: 8c1437757501b8640a8ad06d75c0af85, type: 3}
    - time: 1.3666661
      value: {fileID: 21300000, guid: d0c71b47c4db90641a4216985100c6f0, type: 3}
    - time: 1.3833327
      value: {fileID: 21300000, guid: 05dfb0613df9ea14890d9c0f2480747a, type: 3}
    - time: 1.3999994
      value: {fileID: 21300000, guid: a1c529d15b232a644b9f8d6b756c3020, type: 3}
    - time: 1.416666
      value: {fileID: 21300000, guid: 3704a70c5c30af848bd7e807d796fe04, type: 3}
    - time: 1.4333327
      value: {fileID: 21300000, guid: 17fe5a59c9ac1164fb7b456d9e64db52, type: 3}
    - time: 1.4499993
      value: {fileID: 21300000, guid: 4a5385fcd1898184bb07b3939a87eb81, type: 3}
    - time: 1.466666
      value: {fileID: 21300000, guid: 7a6c0de82b1b10847ae0f845ca0a3f8a, type: 3}
    - time: 1.4833326
      value: {fileID: 21300000, guid: 202bb635b9d14d44fb90fe4187be7201, type: 3}
    - time: 1.4999993
      value: {fileID: 21300000, guid: d2b6d5b4c565b5446a4c6da0632a1c29, type: 3}
    - time: 1.5166659
      value: {fileID: 21300000, guid: c4dde14105bea49409ddeaed36e3ff54, type: 3}
    - time: 1.5333326
      value: {fileID: 21300000, guid: 392ca70fb748e05408acd71b887d981d, type: 3}
    - time: 1.5499992
      value: {fileID: 21300000, guid: e3e018d126549b341a9d93dfa89fe9ae, type: 3}
    - time: 1.5666659
      value: {fileID: 21300000, guid: 524df3525d6ecda488bda0a2e1ec5fa0, type: 3}
    - time: 1.5833325
      value: {fileID: 21300000, guid: eb2f37ba4c925cb4591655fb4b4fa1d9, type: 3}
    - time: 1.5999992
      value: {fileID: 21300000, guid: c44069c730dd1de408c4dca772c64c18, type: 3}
    - time: 1.6166658
      value: {fileID: 21300000, guid: b294c8cdd3c9b114e94fcf9d22f3e6a4, type: 3}
    - time: 1.6333325
      value: {fileID: 21300000, guid: 07935adae1a8cd045a80c0cef516b4ae, type: 3}
    - time: 1.6499991
      value: {fileID: 21300000, guid: 43c2419cd6fa7674581bec4072762a60, type: 3}
    - time: 1.6666658
      value: {fileID: 21300000, guid: 9cfb0f3c9f8855848b0f16c6f801ad9e, type: 3}
    - time: 1.6833324
      value: {fileID: 21300000, guid: 7d4af8a5a06e41344a03ff1fc99206d8, type: 3}
    - time: 1.6999991
      value: {fileID: 21300000, guid: 3ba1c0bc0bd59974aa6ba303fea58383, type: 3}
    - time: 1.7166657
      value: {fileID: 21300000, guid: 2c54a20b6593344468cee253f71dd4a9, type: 3}
    - time: 1.7333324
      value: {fileID: 21300000, guid: 773fa7668390f4c498302f6f0e0c8719, type: 3}
    - time: 1.749999
      value: {fileID: 21300000, guid: a9d7be91eeb8dbd41b93524f37e3fd44, type: 3}
    - time: 1.7666657
      value: {fileID: 21300000, guid: b776db674297b5543a425c1a09625982, type: 3}
    - time: 1.7833323
      value: {fileID: 21300000, guid: 10946c27d233ddd4cb6b2db053675f0f, type: 3}
    - time: 1.799999
      value: {fileID: 21300000, guid: b14574f5e6074e740875e4f3beb1b83e, type: 3}
    - time: 1.8166656
      value: {fileID: 21300000, guid: be7731c91fbd7fa4fa2ca15315e065dc, type: 3}
    - time: 1.8333323
      value: {fileID: 21300000, guid: bfc7963499ad1314e878de4b61f0b372, type: 3}
    - time: 1.849999
      value: {fileID: 21300000, guid: dc0af7e890431ed47a6c559ca8110900, type: 3}
    - time: 1.8666656
      value: {fileID: 21300000, guid: ecd02b86e01fc2d4188241c230f50887, type: 3}
    - time: 1.8833323
      value: {fileID: 21300000, guid: eb59b0e57e489db46b6d9060071a589f, type: 3}
    - time: 1.8999989
      value: {fileID: 21300000, guid: 541aba7346df88640bd399f78e9308e9, type: 3}
    - time: 1.9166656
      value: {fileID: 21300000, guid: ce714f28a308f7547adfeb1d525aa503, type: 3}
    - time: 1.9333322
      value: {fileID: 21300000, guid: 7bc35302fe0aa964eb433cf916289ab9, type: 3}
    - time: 1.9499989
      value: {fileID: 21300000, guid: 626816076ffe80a4bb0137ae74f5959b, type: 3}
    - time: 1.9666655
      value: {fileID: 21300000, guid: 28ef605fd66c737459a15ad0e77b8d78, type: 3}
    - time: 1.9833322
      value: {fileID: 21300000, guid: 9dd0af527a3cf1a4d865811064907180, type: 3}
    - time: 1.9999988
      value: {fileID: 21300000, guid: 9ddd27e99c7866f4a80dda861281fe68, type: 3}
    - time: 2.0166655
      value: {fileID: 21300000, guid: 6fc2442ae1305ad44ad4671b0f36b62e, type: 3}
    - time: 2.033332
      value: {fileID: 21300000, guid: abdcdda66cea4fa4fb8ea255f0961f7e, type: 3}
    - time: 2.0499988
      value: {fileID: 21300000, guid: 812b36635f3411e4b809dceb49ae569f, type: 3}
    - time: 2.0666654
      value: {fileID: 21300000, guid: 84a3eca99dd714f43a4d58f6ab5243dc, type: 3}
    - time: 2.083332
      value: {fileID: 21300000, guid: 4d2c5b12a8a6d404dbadf7a7687debdc, type: 3}
    - time: 2.0999987
      value: {fileID: 21300000, guid: 3977ea8def3873e4c9e014ba6a084005, type: 3}
    - time: 2.1166654
      value: {fileID: 21300000, guid: 6ec2512a56c47b246b4f2b6a7c410e29, type: 3}
    - time: 2.133332
      value: {fileID: 21300000, guid: 39ac52c278978534d8b248d8ed6a893a, type: 3}
    - time: 2.1499987
      value: {fileID: 21300000, guid: efe24fb28cabb3f4f85e75757d4aeb73, type: 3}
    - time: 2.1666653
      value: {fileID: 21300000, guid: c5d208811089da244bb1eb48446ba6eb, type: 3}
    - time: 2.183332
      value: {fileID: 21300000, guid: 0962015389ec1804e875a438eddedc78, type: 3}
    - time: 2.1999986
      value: {fileID: 21300000, guid: f201b133596180d4c92222d96ec3ba72, type: 3}
    - time: 2.2166653
      value: {fileID: 21300000, guid: 970dfef954c0782478ce7c067cce46aa, type: 3}
    - time: 2.233332
      value: {fileID: 21300000, guid: 40c5585d2c22dec469cb5eeca2936ec6, type: 3}
    - time: 2.2499986
      value: {fileID: 21300000, guid: 4ab156cd6a8d08b4d877588807a6de85, type: 3}
    - time: 2.2666652
      value: {fileID: 21300000, guid: df1f27994c6c38543a1bfd223f051b10, type: 3}
    - time: 2.2833319
      value: {fileID: 21300000, guid: 98c46937beb24cd4aa1f11f9a6b41495, type: 3}
    - time: 2.2999985
      value: {fileID: 21300000, guid: e7857eee37a0a4a47b27fc07fc585ce7, type: 3}
    - time: 2.3166652
      value: {fileID: 21300000, guid: 809cc17150ef9d34ca684804545f08a9, type: 3}
    - time: 2.3333318
      value: {fileID: 21300000, guid: 6faf696a235feee41a992f28f7eaa47e, type: 3}
    - time: 2.3499985
      value: {fileID: 21300000, guid: 68a6820b7340d214d9b453d57983d859, type: 3}
    - time: 2.3666651
      value: {fileID: 21300000, guid: c687a47b96cb6a04a88ddaaf109de185, type: 3}
    - time: 2.3833318
      value: {fileID: 21300000, guid: 610b26b4446ea2d458a5106f1ccebc81, type: 3}
    - time: 2.3999984
      value: {fileID: 21300000, guid: 2aa13e755700b8d498809baf9413a4ad, type: 3}
    - time: 2.416665
      value: {fileID: 21300000, guid: d929d9e4fac34434c8345fd40edd5e9e, type: 3}
    - time: 2.4333317
      value: {fileID: 21300000, guid: 6fb6ef2ddd10fa74fa20453004ec9a0c, type: 3}
    - time: 2.4499984
      value: {fileID: 21300000, guid: a4f641a9dc55b7540aaa69c8dd6d4091, type: 3}
    - time: 2.466665
      value: {fileID: 21300000, guid: d1b9a22c7d6e398469c67cb8766f9e13, type: 3}
    - time: 2.4833317
      value: {fileID: 21300000, guid: 7ce8d8b1aba09f3488ad207d2f6d8962, type: 3}
    - time: 2.4999983
      value: {fileID: 21300000, guid: 70f7e134d62925344ac3b778bc3a7959, type: 3}
    - time: 2.516665
      value: {fileID: 21300000, guid: 349b4bca7b8085e47b05e992ebadecf9, type: 3}
    - time: 2.5333316
      value: {fileID: 21300000, guid: 16b5c783d4d201d4aaa5742d91af3d86, type: 3}
    - time: 2.5499983
      value: {fileID: 21300000, guid: aefacc746bfd784428a56461a1f07c17, type: 3}
    - time: 2.566665
      value: {fileID: 21300000, guid: c863e1dd33a7f3341bece6e014e5dd61, type: 3}
    - time: 2.5833316
      value: {fileID: 21300000, guid: 67cd3062c8f16e8458a9d0fc12b19ca9, type: 3}
    - time: 2.5999982
      value: {fileID: 21300000, guid: 3aa3c702cdc460c4aab9aa471f6223c4, type: 3}
    - time: 2.616665
      value: {fileID: 21300000, guid: 214b506b71f574441bafb4eb903ba3d5, type: 3}
    - time: 2.6333315
      value: {fileID: 21300000, guid: 6a164acffa39a9d4db7cb4e35264849d, type: 3}
    - time: 2.6499982
      value: {fileID: 21300000, guid: 15c3cc90570fd2b4aa41bce3d6fc3970, type: 3}
    - time: 2.6666648
      value: {fileID: 21300000, guid: 2db9cd91944731d4dbc4695772124098, type: 3}
    - time: 2.6833315
      value: {fileID: 21300000, guid: 2e4fcbd04bf008141898fcd0a49dfbc6, type: 3}
    - time: 2.6999981
      value: {fileID: 21300000, guid: 916e5f466daa2f14cbe31c503dbb6f26, type: 3}
    - time: 2.7166648
      value: {fileID: 21300000, guid: 45cdb8d9709ceb142a959687262c6159, type: 3}
    - time: 2.7333314
      value: {fileID: 21300000, guid: 3966e55ce6ac617438c4bf81dde0c9dd, type: 3}
    - time: 2.749998
      value: {fileID: 21300000, guid: e17a6f5fef0f0dd41a12bbf3fc3570ab, type: 3}
    - time: 2.7666647
      value: {fileID: 21300000, guid: 8e39e655dec486d4a99222603250c1ec, type: 3}
    - time: 2.7833314
      value: {fileID: 21300000, guid: be40a14f5573af141ba44a8447e69b8e, type: 3}
    - time: 2.799998
      value: {fileID: 21300000, guid: 44ce86e0f34840c40bd526cea021826c, type: 3}
    - time: 2.8166647
      value: {fileID: 21300000, guid: fc5be458fb49455459193ec3ca00114a, type: 3}
    - time: 2.8333313
      value: {fileID: 21300000, guid: 5b217933194cb2a498df5681c2ad1acb, type: 3}
    - time: 2.849998
      value: {fileID: 21300000, guid: 7e99a5c53022e714a806bb1509762570, type: 3}
    - time: 2.8666646
      value: {fileID: 21300000, guid: a5e4e1e68e3f2334395d2e2c36755fad, type: 3}
    - time: 2.8833313
      value: {fileID: 21300000, guid: 360efc3f04e2d7f43ad646aff84b0919, type: 3}
    - time: 2.899998
      value: {fileID: 21300000, guid: e52fc2f272caae849842a8bf38727d0b, type: 3}
    - time: 2.9166646
      value: {fileID: 21300000, guid: f41c10feb7a3f6b4e8309bb156d47f65, type: 3}
    - time: 2.9333313
      value: {fileID: 21300000, guid: 1727c0f609e348c439c2d8fb1ef92eb3, type: 3}
    - time: 2.949998
      value: {fileID: 21300000, guid: d850eb61c8a722f4a8b6d96c7ae5eb53, type: 3}
    - time: 2.9666646
      value: {fileID: 21300000, guid: f6983a9783bed51449bf099da8e6449a, type: 3}
    - time: 2.9833312
      value: {fileID: 21300000, guid: bc7f9b5c2260caf4a8b5a6883e13d794, type: 3}
    - time: 2.9999979
      value: {fileID: 21300000, guid: d39a9d49e4c8ebf43a38add8d6322135, type: 3}
    - time: 3.0166645
      value: {fileID: 21300000, guid: b5ec7b1a8e616bf4fb1c4ba092fe6e7a, type: 3}
    - time: 3.0333312
      value: {fileID: 21300000, guid: cd77aba9777b7f9429e56fa5ce60076e, type: 3}
    - time: 3.0499978
      value: {fileID: 21300000, guid: 240fd0521d6a64a4ea543e8cf8a8f563, type: 3}
    - time: 3.0666645
      value: {fileID: 21300000, guid: 4b2e8c999683c7b47ad398c90aec4618, type: 3}
    - time: 3.083331
      value: {fileID: 21300000, guid: 5919065027ca8284d8d09bd2cf04d0be, type: 3}
    - time: 3.0999978
      value: {fileID: 21300000, guid: ea2d10c62a4544f4689596d682dd2ba5, type: 3}
    - time: 3.1166644
      value: {fileID: 21300000, guid: 5f0fdcf46d681b545a02cb9d0f21d10e, type: 3}
    - time: 3.133331
      value: {fileID: 21300000, guid: 1c507bc046381df4b90e5fce05e1f362, type: 3}
    - time: 3.1499977
      value: {fileID: 21300000, guid: d9506dce075eac84199d277a63c0f1da, type: 3}
    - time: 3.1666644
      value: {fileID: 21300000, guid: 5d34be8aa4917af4fb3f4a5904bf0c8f, type: 3}
    - time: 3.183331
      value: {fileID: 21300000, guid: 33592b611d0675f479a0b249731dd581, type: 3}
    - time: 3.1999977
      value: {fileID: 21300000, guid: 3969dff637f8baa47a0f03c83820ea5b, type: 3}
    - time: 3.2166643
      value: {fileID: 21300000, guid: cda03cee97bd798498ede5053baa01a9, type: 3}
    - time: 3.233331
      value: {fileID: 21300000, guid: 4013263850d81eb4692611ed9fe2aa38, type: 3}
    - time: 3.2499976
      value: {fileID: 21300000, guid: c71487f665d4e684592983711440df1c, type: 3}
    - time: 3.2666643
      value: {fileID: 21300000, guid: c6f6dc52cb72087478364cb2149d5be6, type: 3}
    - time: 3.283331
      value: {fileID: 21300000, guid: 3213487341649564bb3f5ac0712b2ae4, type: 3}
    - time: 3.2999976
      value: {fileID: 21300000, guid: c0a1242c422cf7942876e542f6e90b13, type: 3}
    - time: 3.3166642
      value: {fileID: 21300000, guid: 6d6e73607c182a74880368653dbd97c5, type: 3}
    attribute: m_Sprite
    path: 
    classID: 212
    script: {fileID: 0}
  m_SampleRate: 60
  m_WrapMode: 0
  m_Bounds:
    m_Center: {x: 0, y: 0, z: 0}
    m_Extent: {x: 0, y: 0, z: 0}
  m_ClipBindingConstant:
    genericBindings:
    - serializedVersion: 2
      path: 0
      attribute: 0
      script: {fileID: 0}
      typeID: 212
      customType: 23
      isPPtrCurve: 1
    pptrCurveMapping:
    - {fileID: 21300000, guid: 1df6919e23e05bd4aa9f68cc2a7692fa, type: 3}
    - {fileID: 21300000, guid: 33dc8b8f6965a0f4e98d69f49ee3b367, type: 3}
    - {fileID: 21300000, guid: 6887d4cb9b5666b4fa9a282d00b01c83, type: 3}
    - {fileID: 21300000, guid: 02395fc9dcce5584d8ebfa868540a812, type: 3}
    - {fileID: 21300000, guid: 99a1cdfcc5a66934980a5d6b6aeb20bb, type: 3}
    - {fileID: 21300000, guid: 5a2761e534b225d4188a6714cbdf3ebb, type: 3}
    - {fileID: 21300000, guid: 5c7f1969942e1f04cad4c06700466253, type: 3}
    - {fileID: 21300000, guid: 333a05465a59ac64e9bb570bda0c910a, type: 3}
    - {fileID: 21300000, guid: 59d520af9093e574783a8048933a90ed, type: 3}
    - {fileID: 21300000, guid: eb9db08d977cdea41877b1789ca6ccff, type: 3}
    - {fileID: 21300000, guid: ea93a013fd65f01499df9daf10089fac, type: 3}
    - {fileID: 21300000, guid: 9e11e5be11a01b044b565c0e0b030d61, type: 3}
    - {fileID: 21300000, guid: 9e5dcfa9d2feec84388716196a647b17, type: 3}
    - {fileID: 21300000, guid: 6214bd8ab2246044aa73f533dc310399, type: 3}
    - {fileID: 21300000, guid: 6173a44c24eea1648b286130417c8183, type: 3}
    - {fileID: 21300000, guid: 6b49a5cfa9a991b49aab12634bb3780a, type: 3}
    - {fileID: 21300000, guid: 76518d309c9c03745bf889d4d0a744b9, type: 3}
    - {fileID: 21300000, guid: af74753b8c85bda4bb3ac4a83b3e4f15, type: 3}
    - {fileID: 21300000, guid: fe00c4ed98ebfe84e94394fcbe9b2b67, type: 3}
    - {fileID: 21300000, guid: 7d89eb6b58d63db409f2fc2a29023283, type: 3}
    - {fileID: 21300000, guid: 6dad729ee9d0712429a37e068b10354d, type: 3}
    - {fileID: 21300000, guid: d888457b06972294aa72313ee718f44c, type: 3}
    - {fileID: 21300000, guid: 01ec17cc614d48c4d9a30a54ecd8c686, type: 3}
    - {fileID: 21300000, guid: 9de09d18c069a7d4ba927a862a266838, type: 3}
    - {fileID: 21300000, guid: f55b1ed0d723c1941928fed9e8620424, type: 3}
    - {fileID: 21300000, guid: a4d8b7c202f2deb4d9f2bc823775cf62, type: 3}
    - {fileID: 21300000, guid: 1b2b9cc9a572b5a4c9ee0eee82bb92a1, type: 3}
    - {fileID: 21300000, guid: 64a2bb7d6458a224dad83b7e25d2b1fc, type: 3}
    - {fileID: 21300000, guid: b70c7bfef914ab443ab8d189fbdc04bf, type: 3}
    - {fileID: 21300000, guid: 674515ebe2bb82d448fa44bb7caa5b61, type: 3}
    - {fileID: 21300000, guid: 29b1d4c506d56a9409ada9ce383a709e, type: 3}
    - {fileID: 21300000, guid: 750be88cc9ab1514fb7606654ea1202c, type: 3}
    - {fileID: 21300000, guid: 1a9e7a7c6fd39544e899e1b9e9b560c4, type: 3}
    - {fileID: 21300000, guid: 871c3df621e4e534faad92381e7bec08, type: 3}
    - {fileID: 21300000, guid: 9387c3ec9fa7e0d4592e34d461f19aee, type: 3}
    - {fileID: 21300000, guid: 4eb963f0bc89b50479317e80a71ad9ee, type: 3}
    - {fileID: 21300000, guid: 610901e9916f32843ab0259a2184c244, type: 3}
    - {fileID: 21300000, guid: 9751db8f2e904e0459d994cb0538929e, type: 3}
    - {fileID: 21300000, guid: 11d7a82d5f6ba8f4e832a1c367370899, type: 3}
    - {fileID: 21300000, guid: 75ee19657b5f59c41b66d4c1e77f8ba9, type: 3}
    - {fileID: 21300000, guid: 945dbc2434117ba48a729a8e959a1a8f, type: 3}
    - {fileID: 21300000, guid: 3f8f2fbe1314d0648a358a4aa4c9d08b, type: 3}
    - {fileID: 21300000, guid: 1731c060877a206449434e58ab0a99b3, type: 3}
    - {fileID: 21300000, guid: 1d6cee014c8e8874dbcc7b7dcb96bded, type: 3}
    - {fileID: 21300000, guid: c9c23e78c9e39a14a8ceb9f23f7ef0c6, type: 3}
    - {fileID: 21300000, guid: 8b76e1879a86dcd4994c7256bf42d25b, type: 3}
    - {fileID: 21300000, guid: dfe34af2af1127d4b8b53148d790c4d7, type: 3}
    - {fileID: 21300000, guid: 204128cce8b818c4abcbdccc7e2b9d69, type: 3}
    - {fileID: 21300000, guid: c7074cf5773db3640886cc650a20867e, type: 3}
    - {fileID: 21300000, guid: ecee3dc1c78d32f47ab2eb172885484d, type: 3}
    - {fileID: 21300000, guid: c623f212d199ce04c8484fd89df24b88, type: 3}
    - {fileID: 21300000, guid: 86c1ee3f6a63f1e48b2573845a5f2742, type: 3}
    - {fileID: 21300000, guid: c55fcae70057b3f41bc71246c72e3e9b, type: 3}
    - {fileID: 21300000, guid: 2cbcf1292ecf3ce4d8fa81f5e1f3ef71, type: 3}
    - {fileID: 21300000, guid: 5642792e6c18cda47b7ebf5ef2d4c2ec, type: 3}
    - {fileID: 21300000, guid: 04a357ef45e98ee4e8cad9a41e846193, type: 3}
    - {fileID: 21300000, guid: 705c2c0574f942f41b67568f2bb9d93e, type: 3}
    - {fileID: 21300000, guid: b78ec0bdbac3e3e4988f37b4f0ada2b5, type: 3}
    - {fileID: 21300000, guid: c2e8c02d0a8a5694b8c02822ffbd5a84, type: 3}
    - {fileID: 21300000, guid: cef32036a90c4ad49abb295ad6781622, type: 3}
    - {fileID: 21300000, guid: 895939de57082d7439dc9fcf53bc6b13, type: 3}
    - {fileID: 21300000, guid: 18523d8d278b80d4b96dd81eecee9c56, type: 3}
    - {fileID: 21300000, guid: f3251e81f1f84b04fb733c6048fbc83d, type: 3}
    - {fileID: 21300000, guid: 30bd5bbdfd0b4964b8bb35cf5a6403f7, type: 3}
    - {fileID: 21300000, guid: 1321b65841ff40147b6e5e328a572c0a, type: 3}
    - {fileID: 21300000, guid: 9916a051ae8182c43ad29b71668dcfc7, type: 3}
    - {fileID: 21300000, guid: 09d153e3f89131e4a9beda262ee5d107, type: 3}
    - {fileID: 21300000, guid: d6022b19a8f42f44e9145b3811662531, type: 3}
    - {fileID: 21300000, guid: ff49f246ef0979f4995bdb99f9331197, type: 3}
    - {fileID: 21300000, guid: b13980c10b8f8244ca94764243bc915a, type: 3}
    - {fileID: 21300000, guid: 7bc907b49f433c446bf120e7f6773106, type: 3}
    - {fileID: 21300000, guid: 2f8bd08056cfe8246ba3582f470704a7, type: 3}
    - {fileID: 21300000, guid: dde96defef659a548978a33981bce60f, type: 3}
    - {fileID: 21300000, guid: 030399f1f7f26d64d8ecf587376147bc, type: 3}
    - {fileID: 21300000, guid: 2a4f7a287981f544d90b4f4a82e33aca, type: 3}
    - {fileID: 21300000, guid: a3be3a4b3b5384849a0e4bf01ea8b1f1, type: 3}
    - {fileID: 21300000, guid: 151478a1d7c66dc41b142ddbb7aef891, type: 3}
    - {fileID: 21300000, guid: 52b764dd51f7fb349a58333c9f326e7a, type: 3}
    - {fileID: 21300000, guid: b2201676cdc26d940b4731ab596fc729, type: 3}
    - {fileID: 21300000, guid: 23ffd99828625554bbffb0b0451ab3cc, type: 3}
    - {fileID: 21300000, guid: 11b8f6ae4620d264eb848ddb091493df, type: 3}
    - {fileID: 21300000, guid: 8c1437757501b8640a8ad06d75c0af85, type: 3}
    - {fileID: 21300000, guid: d0c71b47c4db90641a4216985100c6f0, type: 3}
    - {fileID: 21300000, guid: 05dfb0613df9ea14890d9c0f2480747a, type: 3}
    - {fileID: 21300000, guid: a1c529d15b232a644b9f8d6b756c3020, type: 3}
    - {fileID: 21300000, guid: 3704a70c5c30af848bd7e807d796fe04, type: 3}
    - {fileID: 21300000, guid: 17fe5a59c9ac1164fb7b456d9e64db52, type: 3}
    - {fileID: 21300000, guid: 4a5385fcd1898184bb07b3939a87eb81, type: 3}
    - {fileID: 21300000, guid: 7a6c0de82b1b10847ae0f845ca0a3f8a, type: 3}
    - {fileID: 21300000, guid: 202bb635b9d14d44fb90fe4187be7201, type: 3}
    - {fileID: 21300000, guid: d2b6d5b4c565b5446a4c6da0632a1c29, type: 3}
    - {fileID: 21300000, guid: c4dde14105bea49409ddeaed36e3ff54, type: 3}
    - {fileID: 21300000, guid: 392ca70fb748e05408acd71b887d981d, type: 3}
    - {fileID: 21300000, guid: e3e018d126549b341a9d93dfa89fe9ae, type: 3}
    - {fileID: 21300000, guid: 524df3525d6ecda488bda0a2e1ec5fa0, type: 3}
    - {fileID: 21300000, guid: eb2f37ba4c925cb4591655fb4b4fa1d9, type: 3}
    - {fileID: 21300000, guid: c44069c730dd1de408c4dca772c64c18, type: 3}
    - {fileID: 21300000, guid: b294c8cdd3c9b114e94fcf9d22f3e6a4, type: 3}
    - {fileID: 21300000, guid: 07935adae1a8cd045a80c0cef516b4ae, type: 3}
    - {fileID: 21300000, guid: 43c2419cd6fa7674581bec4072762a60, type: 3}
    - {fileID: 21300000, guid: 9cfb0f3c9f8855848b0f16c6f801ad9e, type: 3}
    - {fileID: 21300000, guid: 7d4af8a5a06e41344a03ff1fc99206d8, type: 3}
    - {fileID: 21300000, guid: 3ba1c0bc0bd59974aa6ba303fea58383, type: 3}
    - {fileID: 21300000, guid: 2c54a20b6593344468cee253f71dd4a9, type: 3}
    - {fileID: 21300000, guid: 773fa7668390f4c498302f6f0e0c8719, type: 3}
    - {fileID: 21300000, guid: a9d7be91eeb8dbd41b93524f37e3fd44, type: 3}
    - {fileID: 21300000, guid: b776db674297b5543a425c1a09625982, type: 3}
    - {fileID: 21300000, guid: 10946c27d233ddd4cb6b2db053675f0f, type: 3}
    - {fileID: 21300000, guid: b14574f5e6074e740875e4f3beb1b83e, type: 3}
    - {fileID: 21300000, guid: be7731c91fbd7fa4fa2ca15315e065dc, type: 3}
    - {fileID: 21300000, guid: bfc7963499ad1314e878de4b61f0b372, type: 3}
    - {fileID: 21300000, guid: dc0af7e890431ed47a6c559ca8110900, type: 3}
    - {fileID: 21300000, guid: ecd02b86e01fc2d4188241c230f50887, type: 3}
    - {fileID: 21300000, guid: eb59b0e57e489db46b6d9060071a589f, type: 3}
    - {fileID: 21300000, guid: 541aba7346df88640bd399f78e9308e9, type: 3}
    - {fileID: 21300000, guid: ce714f28a308f7547adfeb1d525aa503, type: 3}
    - {fileID: 21300000, guid: 7bc35302fe0aa964eb433cf916289ab9, type: 3}
    - {fileID: 21300000, guid: 626816076ffe80a4bb0137ae74f5959b, type: 3}
    - {fileID: 21300000, guid: 28ef605fd66c737459a15ad0e77b8d78, type: 3}
    - {fileID: 21300000, guid: 9dd0af527a3cf1a4d865811064907180, type: 3}
    - {fileID: 21300000, guid: 9ddd27e99c7866f4a80dda861281fe68, type: 3}
    - {fileID: 21300000, guid: 6fc2442ae1305ad44ad4671b0f36b62e, type: 3}
    - {fileID: 21300000, guid: abdcdda66cea4fa4fb8ea255f0961f7e, type: 3}
    - {fileID: 21300000, guid: 812b36635f3411e4b809dceb49ae569f, type: 3}
    - {fileID: 21300000, guid: 84a3eca99dd714f43a4d58f6ab5243dc, type: 3}
    - {fileID: 21300000, guid: 4d2c5b12a8a6d404dbadf7a7687debdc, type: 3}
    - {fileID: 21300000, guid: 3977ea8def3873e4c9e014ba6a084005, type: 3}
    - {fileID: 21300000, guid: 6ec2512a56c47b246b4f2b6a7c410e29, type: 3}
    - {fileID: 21300000, guid: 39ac52c278978534d8b248d8ed6a893a, type: 3}
    - {fileID: 21300000, guid: efe24fb28cabb3f4f85e75757d4aeb73, type: 3}
    - {fileID: 21300000, guid: c5d208811089da244bb1eb48446ba6eb, type: 3}
    - {fileID: 21300000, guid: 0962015389ec1804e875a438eddedc78, type: 3}
    - {fileID: 21300000, guid: f201b133596180d4c92222d96ec3ba72, type: 3}
    - {fileID: 21300000, guid: 970dfef954c0782478ce7c067cce46aa, type: 3}
    - {fileID: 21300000, guid: 40c5585d2c22dec469cb5eeca2936ec6, type: 3}
    - {fileID: 21300000, guid: 4ab156cd6a8d08b4d877588807a6de85, type: 3}
    - {fileID: 21300000, guid: df1f27994c6c38543a1bfd223f051b10, type: 3}
    - {fileID: 21300000, guid: 98c46937beb24cd4aa1f11f9a6b41495, type: 3}
    - {fileID: 21300000, guid: e7857eee37a0a4a47b27fc07fc585ce7, type: 3}
    - {fileID: 21300000, guid: 809cc17150ef9d34ca684804545f08a9, type: 3}
    - {fileID: 21300000, guid: 6faf696a235feee41a992f28f7eaa47e, type: 3}
    - {fileID: 21300000, guid: 68a6820b7340d214d9b453d57983d859, type: 3}
    - {fileID: 21300000, guid: c687a47b96cb6a04a88ddaaf109de185, type: 3}
    - {fileID: 21300000, guid: 610b26b4446ea2d458a5106f1ccebc81, type: 3}
    - {fileID: 21300000, guid: 2aa13e755700b8d498809baf9413a4ad, type: 3}
    - {fileID: 21300000, guid: d929d9e4fac34434c8345fd40edd5e9e, type: 3}
    - {fileID: 21300000, guid: 6fb6ef2ddd10fa74fa20453004ec9a0c, type: 3}
    - {fileID: 21300000, guid: a4f641a9dc55b7540aaa69c8dd6d4091, type: 3}
    - {fileID: 21300000, guid: d1b9a22c7d6e398469c67cb8766f9e13, type: 3}
    - {fileID: 21300000, guid: 7ce8d8b1aba09f3488ad207d2f6d8962, type: 3}
    - {fileID: 21300000, guid: 70f7e134d62925344ac3b778bc3a7959, type: 3}
    - {fileID: 21300000, guid: 349b4bca7b8085e47b05e992ebadecf9, type: 3}
    - {fileID: 21300000, guid: 16b5c783d4d201d4aaa5742d91af3d86, type: 3}
    - {fileID: 21300000, guid: aefacc746bfd784428a56461a1f07c17, type: 3}
    - {fileID: 21300000, guid: c863e1dd33a7f3341bece6e014e5dd61, type: 3}
    - {fileID: 21300000, guid: 67cd3062c8f16e8458a9d0fc12b19ca9, type: 3}
    - {fileID: 21300000, guid: 3aa3c702cdc460c4aab9aa471f6223c4, type: 3}
    - {fileID: 21300000, guid: 214b506b71f574441bafb4eb903ba3d5, type: 3}
    - {fileID: 21300000, guid: 6a164acffa39a9d4db7cb4e35264849d, type: 3}
    - {fileID: 21300000, guid: 15c3cc90570fd2b4aa41bce3d6fc3970, type: 3}
    - {fileID: 21300000, guid: 2db9cd91944731d4dbc4695772124098, type: 3}
    - {fileID: 21300000, guid: 2e4fcbd04bf008141898fcd0a49dfbc6, type: 3}
    - {fileID: 21300000, guid: 916e5f466daa2f14cbe31c503dbb6f26, type: 3}
    - {fileID: 21300000, guid: 45cdb8d9709ceb142a959687262c6159, type: 3}
    - {fileID: 21300000, guid: 3966e55ce6ac617438c4bf81dde0c9dd, type: 3}
    - {fileID: 21300000, guid: e17a6f5fef0f0dd41a12bbf3fc3570ab, type: 3}
    - {fileID: 21300000, guid: 8e39e655dec486d4a99222603250c1ec, type: 3}
    - {fileID: 21300000, guid: be40a14f5573af141ba44a8447e69b8e, type: 3}
    - {fileID: 21300000, guid: 44ce86e0f34840c40bd526cea021826c, type: 3}
    - {fileID: 21300000, guid: fc5be458fb49455459193ec3ca00114a, type: 3}
    - {fileID: 21300000, guid: 5b217933194cb2a498df5681c2ad1acb, type: 3}
    - {fileID: 21300000, guid: 7e99a5c53022e714a806bb1509762570, type: 3}
    - {fileID: 21300000, guid: a5e4e1e68e3f2334395d2e2c36755fad, type: 3}
    - {fileID: 21300000, guid: 360efc3f04e2d7f43ad646aff84b0919, type: 3}
    - {fileID: 21300000, guid: e52fc2f272caae849842a8bf38727d0b, type: 3}
    - {fileID: 21300000, guid: f41c10feb7a3f6b4e8309bb156d47f65, type: 3}
    - {fileID: 21300000, guid: 1727c0f609e348c439c2d8fb1ef92eb3, type: 3}
    - {fileID: 21300000, guid: d850eb61c8a722f4a8b6d96c7ae5eb53, type: 3}
    - {fileID: 21300000, guid: f6983a9783bed51449bf099da8e6449a, type: 3}
    - {fileID: 21300000, guid: bc7f9b5c2260caf4a8b5a6883e13d794, type: 3}
    - {fileID: 21300000, guid: d39a9d49e4c8ebf43a38add8d6322135, type: 3}
    - {fileID: 21300000, guid: b5ec7b1a8e616bf4fb1c4ba092fe6e7a, type: 3}
    - {fileID: 21300000, guid: cd77aba9777b7f9429e56fa5ce60076e, type: 3}
    - {fileID: 21300000, guid: 240fd0521d6a64a4ea543e8cf8a8f563, type: 3}
    - {fileID: 21300000, guid: 4b2e8c999683c7b47ad398c90aec4618, type: 3}
    - {fileID: 21300000, guid: 5919065027ca8284d8d09bd2cf04d0be, type: 3}
    - {fileID: 21300000, guid: ea2d10c62a4544f4689596d682dd2ba5, type: 3}
    - {fileID: 21300000, guid: 5f0fdcf46d681b545a02cb9d0f21d10e, type: 3}
    - {fileID: 21300000, guid: 1c507bc046381df4b90e5fce05e1f362, type: 3}
    - {fileID: 21300000, guid: d9506dce075eac84199d277a63c0f1da, type: 3}
    - {fileID: 21300000, guid: 5d34be8aa4917af4fb3f4a5904bf0c8f, type: 3}
    - {fileID: 21300000, guid: 33592b611d0675f479a0b249731dd581, type: 3}
    - {fileID: 21300000, guid: 3969dff637f8baa47a0f03c83820ea5b, type: 3}
    - {fileID: 21300000, guid: cda03cee97bd798498ede5053baa01a9, type: 3}
    - {fileID: 21300000, guid: 4013263850d81eb4692611ed9fe2aa38, type: 3}
    - {fileID: 21300000, guid: c71487f665d4e684592983711440df1c, type: 3}
    - {fileID: 21300000, guid: c6f6dc52cb72087478364cb2149d5be6, type: 3}
    - {fileID: 21300000, guid: 3213487341649564bb3f5ac0712b2ae4, type: 3}
    - {fileID: 21300000, guid: c0a1242c422cf7942876e542f6e90b13, type: 3}
    - {fileID: 21300000, guid: 6d6e73607c182a74880368653dbd97c5, type: 3}
  m_AnimationClipSettings:
    serializedVersion: 2
    m_AdditiveReferencePoseClip: {fileID: 0}
    m_AdditiveReferencePoseTime: 0
    m_StartTime: 0
    m_StopTime: 3.3333309
    m_OrientationOffsetY: 0
    m_Level: 0
    m_CycleOffset: 0
    m_HasAdditiveReferencePose: 0
    m_LoopTime: 1
    m_LoopBlend: 0
    m_LoopBlendOrientation: 0
    m_LoopBlendPositionY: 0
    m_LoopBlendPositionXZ: 0
    m_KeepOriginalOrientation: 0
    m_KeepOriginalPositionY: 1
    m_KeepOriginalPositionXZ: 0
    m_HeightFromFeet: 0
    m_Mirror: 0
  m_EditorCurves: []
  m_EulerEditorCurves: []
  m_HasGenericRootTransform: 0
  m_HasMotionFloatCurves: 0
  m_GenerateMotionCurves: 0
  m_Events: []
